…
```r
global_sharks
```

```
## # A tibble: 6,890 × 21
##    date        year type       country area  location activity name  sex   age  
##    <date>     <dbl> <chr>      <chr>   <chr> <chr>    <chr>    <chr> <chr> <chr>
##  1 2023-07-29  2023 Unprovoked USA     Flor… Tampa B… Swimming "Nat… F     26   
##  2 2023-04-22  2023 Unprovoked AUSTRA… West… Lucy's … Surfing  "Max… M     30   
##  3 2023-03-02  2023 Unprovoked SEYCHE… Pras… <NA>     Snorkel… "Art… M     6    
##  4 2023-02-18  2023 Questiona… ARGENT… Pata… Chubut … <NA>     "Die… M     32   
##  5 2022-07-28  2022 Unprovoked ENGLAND Corn… Penzance Snorkel… "fem… F     <NA> 
##  6 2022-03-09  2022 Provoked   USA     Flor… New Smy… Fishing  "mal… M     21.0 
##  7 2021-12-06  2021 Unprovoked AUSTRA… Vict… Ocean G… Swimming "Jac… M     15.0 
##  8 2021-01-22  2021 Unprovoked USA     Hawa… Maui     Snorkel… "Jer… M     73.0 
##  9 2021-01-02  2021 Unprovoked USA     Flor… Cocoa B… Surfing  "Kel… M     17.0 
## 10 2020-10-30  2020 Unprovoked BAHAMAS Gran… East En… Spearfi… "Ant… M     <NA> 
## # ℹ 6,880 more rows
## # ℹ 11 more variables: injury <chr>, fatal_y_n <chr>, time <chr>,
## #   species <chr>, investigator_or_source <chr>, pdf <chr>, href_formula <chr>,
## #   href <chr>, case_number_19 <chr>, case_number_20 <chr>,
## #   original_order <dbl>
```

2. (3 points) Are there any "hotspots" for shark incidents? Make a plot that shows the total number of incidents for the top 10 countries? Which country has the highest number of incidents?


```r
global_sharks %>%
  group_by(country) %>%
  summarize(total_incidents = n()) %>%
  arrange(desc(total_incidents))  
```

```
## # A tibble: 216 × 2
##    country          total_incidents
##    <chr>                      <int>
##  1 USA                         2522
##  2 AUSTRALIA                   1464
##  3 SOUTH AFRICA                 596
##  4 NEW ZEALAND                  142
##  5 PAPUA NEW GUINEA             136
##  6 BAHAMAS                      132
##  7 BRAZIL                       122
##  8 MEXICO                       100
##  9 ITALY                         72
## 10 FIJI                          67
## # ℹ 206 more rows
```
…
```
## # A tibble: 2 × 4
##   sex   min_age median_age max_age
##   <chr>   <dbl>      <dbl>   <dbl>
## 1 F           1         21      77
## 2 M           1         25      87
```


```r
cleaned_sharks
```

```
## # A tibble: 6,313 × 23
##    date        year type       country area  location activity name  sex   age  
##    <date>     <dbl> <chr>      <chr>   <chr> <chr>    <chr>    <chr> <chr> <chr>
##  1 2023-07-29  2023 Unprovoked USA     Flor… Tampa B… Swimming "Nat… F     26   
##  2 2023-04-22  2023 Unprovoked AUSTRA… West… Lucy's … Surfing  "Max… M     30   
##  3 2023-03-02  2023 Unprovoked SEYCHE… Pras… <NA>     Snorkel… "Art… M     6    
##  4 2023-02-18  2023 Questiona… ARGENT… Pata… Chubut … <NA>     "Die… M     32   
##  5 2022-07-28  2022 Unprovoked ENGLAND Corn… Penzance Snorkel… "fem… F     <NA> 
##  6 2022-03-09  2022 Provoked   USA     Flor… New Smy… Fishing  "mal… M     21.0 
##  7 2021-12-06  2021 Unprovoked AUSTRA… Vict… Ocean G… Swimming "Jac… M     15.0 
##  8 2021-01-22  2021 Unprovoked USA     Hawa… Maui     Snorkel… "Jer… M     73.0 
##  9 2021-01-02  2021 Unprovoked USA     Flor… Cocoa B… Surfing  "Kel… M     17.0 
## 10 2020-10-30  2020 Unprovoked BAHAMAS Gran… East En… Spearfi… "Ant… M     <NA> 
## # ℹ 6,303 more rows
## # ℹ 13 more variables: injury <chr>, fatal_y_n <chr>, time <chr>,
## #   species <chr>, investigator_or_source <chr>, pdf <chr>, href_formula <chr>,
## #   href <chr>, case_number_19 <chr>, case_number_20 <chr>,
## #   original_order <dbl>, month <ord>, cleaned_age <dbl>
```
…
```
## [1] 733
```

```r
top_country_great_white <- great_white_attacks %>%
  group_by(country) %>%
  summarize(total_attacks = n()) %>%
  arrange(desc(total_attacks)) 
top_country_great_white
```

```
## # A tibble: 50 × 2
##    country      total_attacks
##    <chr>                <int>
##  1 USA                    230
##  2 AUSTRALIA              180
##  3 SOUTH AFRICA           171
##  4 ITALY                   26
##  5 NEW ZEALAND             21
##  6 EGYPT                   18
##  7 CROATIA                 11
##  8 CHILE                    6
##  9 GREECE                   5
## 10 BRAZIL                   4
## # ℹ 40 more rows
```
…
10. (3 points) Using the `global_sharks` data, what is one question that you are interested in exploring? Write the question and answer it using a plot or table. 


```r
global_sharks %>%
  mutate(year = lubridate::year(date)) %>%
  filter(year >= 1900)
```

```
## # A tibble: 6,020 × 22
##    date        year type       country area  location activity name  sex   age  
##    <date>     <dbl> <chr>      <chr>   <chr> <chr>    <chr>    <chr> <chr> <chr>
##  1 2023-07-29  2023 Unprovoked USA     Flor… Tampa B… Swimming "Nat… F     26   
##  2 2023-04-22  2023 Unprovoked AUSTRA… West… Lucy's … Surfing  "Max… M     30   
##  3 2023-03-02  2023 Unprovoked SEYCHE… Pras… <NA>     Snorkel… "Art… M     6    
##  4 2023-02-18  2023 Questiona… ARGENT… Pata… Chubut … <NA>     "Die… M     32   
##  5 2022-07-28  2022 Unprovoked ENGLAND Corn… Penzance Snorkel… "fem… F     <NA> 
##  6 2022-03-09  2022 Provoked   USA     Flor… New Smy… Fishing  "mal… M     21.0 
##  7 2021-12-06  2021 Unprovoked AUSTRA… Vict… Ocean G… Swimming "Jac… M     15.0 
##  8 2021-01-22  2021 Unprovoked USA     Hawa… Maui     Snorkel… "Jer… M     73.0 
##  9 2021-01-02  2021 Unprovoked USA     Flor… Cocoa B… Surfing  "Kel… M     17.0 
## 10 2020-10-30  2020 Unprovoked BAHAMAS Gran… East En… Spearfi… "Ant… M     <NA> 
## # ℹ 6,010 more rows
## # ℹ 12 more variables: injury <chr>, fatal_y_n <chr>, time <chr>,
## #   species <chr>, investigator_or_source <chr>, pdf <chr>, href_formula <chr>,
## #   href <chr>, case_number_19 <chr>, case_number_20 <chr>,
## #   original_order <dbl>, month <ord>
```
…
```r
global_sharks %>%
  mutate(year = lubridate::year(date)) %>%
  filter(year >= 1900) %>% 
  group_by(year) %>%
  summarize(total_incidents = n()) %>%
  arrange(year) %>%
  mutate(total_incidents = cumsum(total_incidents)) %>% 
  arrange(desc(total_incidents))
```

```
## # A tibble: 124 × 2
##     year total_incidents
##    <dbl>           <int>
##  1  2023            6020
##  2  2022            5957
##  3  2021            5859
##  4  2020            5752
##  5  2019            5653
##  6  2018            5541
##  7  2017            5417
##  8  2016            5277
##  9  2015            5146
## 10  2014            5003
## # ℹ 114 more rows
```
…
