…
Problem 4. (4 points) Which park has the largest number of wolf packs?


```r
wolves %>% 
  select(park, packsize_aug) %>% 
  group_by(park) %>% 
  arrange(desc(packsize_aug))
```

```
## # A tibble: 864 × 2
## # Groups:   park [5]
##    park  packsize_aug
##    <chr>        <dbl>
##  1 YNP           37  
##  2 YNP           35  
##  3 DENA          33  
##  4 YNP           28  
##  5 DENA          27  
##  6 YNP           27  
##  7 YNP           27  
##  8 GNTP          26.4
##  9 YNP           26  
## 10 YNP           26  
## # ℹ 854 more rows
```

Problem 5. (4 points) Which park has the highest total number of human-caused mortalities `mort_all`?


```r
wolves %>% 
  select(park, mort_all) %>% 
  group_by(park) %>% 
  arrange(desc(mort_all))
```

```
## # A tibble: 864 × 2
## # Groups:   park [5]
##    park  mort_all
##    <chr>    <int>
##  1 YUCH        24
##  2 YUCH        14
##  3 YUCH        12
##  4 YUCH        12
##  5 YUCH        10
##  6 YUCH         8
##  7 YUCH         5
##  8 YUCH         5
##  9 DENA         4
## 10 GNTP         4
## # ℹ 854 more rows
```
…
In 2010, the Druid Peak wolf pack went extinct. The pack size was a mere 12 wolves in 2009. These wolves could have been killed due to hunters or possibly their habitat was destroyed. Another competing animal could have been introduced into the park, where competing for similar foods could have ruined their chances of being able to feed themselves. Since there are other wolf packs in the park, they could have been competing with one another, leading to the decline of the Druids Peak wolfpack.

Problem 9. (5 points) Among the YNP wolf packs, which one has had the highest overall persistence `persisty1` for the years represented in the data? Look this pack up online and tell me what is unique about its behavior- specifically, what prey animals does this pack specialize on?  


```r
ynp %>%
  select(pack, persisty1, biolyr) %>% 
  group_by(pack) %>%
  summarize(total_persistence = sum(persisty1)) %>%
  arrange(desc(total_persistence))  
```

```
## # A tibble: 46 × 2
##    pack        total_persistence
##    <chr>                   <int>
##  1 mollies                    26
##  2 cougar                     20
##  3 yelldelta                  18
##  4 leopold                    12
##  5 agate                      10
##  6 8mile                       9
##  7 canyon                      9
##  8 gibbon/mary                 9
##  9 junction                    8
## 10 lamar                       8
## # ℹ 36 more rows
```
…
