…
```r
homerange
```

```
## # A tibble: 569 × 24
##    taxon        common.name class order family genus species primarymethod N    
##    <chr>        <chr>       <chr> <chr> <chr>  <chr> <chr>   <chr>         <chr>
##  1 lake fishes  american e… acti… angu… angui… angu… rostra… telemetry     16   
##  2 river fishes blacktail … acti… cypr… catos… moxo… poecil… mark-recaptu… <NA> 
##  3 river fishes central st… acti… cypr… cypri… camp… anomal… mark-recaptu… 20   
##  4 river fishes rosyside d… acti… cypr… cypri… clin… fundul… mark-recaptu… 26   
##  5 river fishes longnose d… acti… cypr… cypri… rhin… catara… mark-recaptu… 17   
##  6 river fishes muskellunge acti… esoc… esoci… esox  masqui… telemetry     5    
##  7 marine fish… pollack     acti… gadi… gadid… poll… pollac… telemetry     2    
##  8 marine fish… saithe      acti… gadi… gadid… poll… virens  telemetry     2    
##  9 marine fish… lined surg… acti… perc… acant… acan… lineat… direct obser… <NA> 
## 10 marine fish… orangespin… acti… perc… acant… naso  litura… telemetry     8    
## # ℹ 559 more rows
## # ℹ 15 more variables: mean.mass.g <dbl>, log10.mass <dbl>,
## #   alternative.mass.reference <chr>, mean.hra.m2 <dbl>, log10.hra <dbl>,
## #   hra.reference <chr>, realm <chr>, thermoregulation <chr>, locomotion <chr>,
## #   trophic.guild <chr>, dimension <dbl>, preymass <dbl>, log10.preymass <dbl>,
## #   PPMR <dbl>, prey.size.reference <chr>
```
…
Source: https://animalia.bio/eurasian-pygmy-owl?letter=e

**10. As measured by the data, which bird species has the largest homerange? Show all of your work, please. Look this species up online and tell me about it!**.  

```r
homerange %>% 
  arrange(desc(mean_hra_m2)) %>% 
  filter(class == "aves")
```

```
## # A tibble: 140 × 24
##    taxon common_name       class order family genus species primary_method N    
##    <fct> <chr>             <chr> <fct> <chr>  <chr> <chr>   <chr>          <chr>
##  1 birds caracara          aves  falc… falco… cara… cheriw… telemetry      26   
##  2 birds Montagu's harrier aves  falc… accip… circ… pygarg… telemetry*     <NA> 
##  3 birds peregrine falcon  aves  falc… falco… falco peregr… telemetry*     <NA> 
##  4 birds booted eagle      aves  acci… accip… hier… pennat… telemetry      4    
##  5 birds ostrich           aves  stru… strut… stru… camelus telemetry      1    
##  6 birds short-toed snake… aves  acci… accip… circ… gallic… telemetry*     <NA> 
##  7 birds European turtle … aves  colu… colum… stre… turtur  telemetry*     <NA> 
##  8 birds Egyptian vulture  aves  acci… accip… neop… percno… telemetry*     <NA> 
##  9 birds common buzzard    aves  acci… accip… buteo buteo   telemetry*     <NA> 
## 10 birds lanner falcon     aves  falc… falco… falco biarmi… telemetry*     <NA> 
## # ℹ 130 more rows
## # ℹ 15 more variables: mean_mass_g <dbl>, log10_mass <dbl>,
## #   alternative_mass_reference <chr>, mean_hra_m2 <dbl>, log10_hra <dbl>,
## #   hra_reference <chr>, realm <chr>, thermoregulation <chr>, locomotion <chr>,
## #   trophic_guild <chr>, dimension <dbl>, prey_mass <dbl>,
## #   log10_prey_mass <dbl>, PPMR <dbl>, prey_size_reference <chr>
```
…
