…
```r
superhero_info
```

```
## # A tibble: 734 × 10
##    name  gender eye_color race  hair_color height publisher skin_color alignment
##    <chr> <chr>  <chr>     <chr> <chr>       <dbl> <chr>     <chr>      <chr>    
##  1 A-Bo… Male   yellow    Human No Hair       203 Marvel C… -          good     
##  2 Abe … Male   blue      Icth… No Hair       191 Dark Hor… blue       good     
##  3 Abin… Male   blue      Unga… No Hair       185 DC Comics red        good     
##  4 Abom… Male   green     Huma… No Hair       203 Marvel C… -          bad      
##  5 Abra… Male   blue      Cosm… Black         -99 Marvel C… -          bad      
##  6 Abso… Male   blue      Human No Hair       193 Marvel C… -          bad      
##  7 Adam… Male   blue      -     Blond         -99 NBC - He… -          good     
##  8 Adam… Male   blue      Human Blond         185 DC Comics -          good     
##  9 Agen… Female blue      -     Blond         173 Marvel C… -          good     
## 10 Agen… Male   brown     Human Brown         178 Marvel C… -          good     
## # ℹ 724 more rows
## # ℹ 1 more variable: weight <dbl>
```
…
2. Notice that we have some neutral superheros! Who are they? List their names below.  


```r
filter(superhero_info, alignment == "neutral")
```

```
## # A tibble: 24 × 10
##    name  gender eye_color race  hair_color height publisher skin_color alignment
##    <chr> <chr>  <chr>     <chr> <chr>       <dbl> <chr>     <chr>      <chr>    
##  1 Biza… Male   black     Biza… Black         191 DC Comics white      neutral  
##  2 Blac… Male   -         God … -             -99 DC Comics -          neutral  
##  3 Capt… Male   brown     Human Brown         -99 DC Comics -          neutral  
##  4 Copy… Female red       Muta… White         183 Marvel C… blue       neutral  
##  5 Dead… Male   brown     Muta… No Hair       188 Marvel C… -          neutral  
##  6 Deat… Male   blue      Human White         193 DC Comics -          neutral  
##  7 Etri… Male   red       Demon No Hair       193 DC Comics yellow     neutral  
##  8 Gala… Male   black     Cosm… Black         876 Marvel C… -          neutral  
##  9 Glad… Male   blue      Stro… Blue          198 Marvel C… purple     neutral  
## 10 Indi… Female -         Alien Purple        -99 DC Comics -          neutral  
## # ℹ 14 more rows
## # ℹ 1 more variable: weight <dbl>
```

## `superhero_info`
3. Let's say we are only interested in the variables name, alignment, and "race". How would you isolate these variables from `superhero_info`?


```r
superhero_info %>% 
  select(alignment, race)
```

```
## # A tibble: 734 × 2
##    alignment race             
##    <chr>     <chr>            
##  1 good      Human            
##  2 good      Icthyo Sapien    
##  3 good      Ungaran          
##  4 bad       Human / Radiation
##  5 bad       Cosmic Entity    
##  6 bad       Human            
##  7 good      -                
##  8 good      Human            
##  9 good      -                
## 10 good      Human            
## # ℹ 724 more rows
```

## Not Human
4. List all of the superheros that are not human.

```r
filter(superhero_info, race !="Human")
```

```
## # A tibble: 526 × 10
##    name  gender eye_color race  hair_color height publisher skin_color alignment
##    <chr> <chr>  <chr>     <chr> <chr>       <dbl> <chr>     <chr>      <chr>    
##  1 Abe … Male   blue      Icth… No Hair       191 Dark Hor… blue       good     
##  2 Abin… Male   blue      Unga… No Hair       185 DC Comics red        good     
##  3 Abom… Male   green     Huma… No Hair       203 Marvel C… -          bad      
##  4 Abra… Male   blue      Cosm… Black         -99 Marvel C… -          bad      
##  5 Adam… Male   blue      -     Blond         -99 NBC - He… -          good     
##  6 Agen… Female blue      -     Blond         173 Marvel C… -          good     
##  7 Agen… Male   -         -     -             191 Marvel C… -          good     
##  8 Air-… Male   blue      -     White         188 Marvel C… -          bad      
##  9 Ajax  Male   brown     Cybo… Black         193 Marvel C… -          bad      
## 10 Alan… Male   blue      -     Blond         180 DC Comics -          good     
## # ℹ 516 more rows
## # ℹ 1 more variable: weight <dbl>
```
…
```r
good_guys <- filter(superhero_info, alignment == "good")
bad_guys <- filter(superhero_info, alignment == "bad")
```


```r
good_guys
```

```
## # A tibble: 496 × 10
##    name  gender eye_color race  hair_color height publisher skin_color alignment
##    <chr> <chr>  <chr>     <chr> <chr>       <dbl> <chr>     <chr>      <chr>    
##  1 A-Bo… Male   yellow    Human No Hair       203 Marvel C… -          good     
##  2 Abe … Male   blue      Icth… No Hair       191 Dark Hor… blue       good     
##  3 Abin… Male   blue      Unga… No Hair       185 DC Comics red        good     
##  4 Adam… Male   blue      -     Blond         -99 NBC - He… -          good     
##  5 Adam… Male   blue      Human Blond         185 DC Comics -          good     
##  6 Agen… Female blue      -     Blond         173 Marvel C… -          good     
##  7 Agen… Male   brown     Human Brown         178 Marvel C… -          good     
##  8 Agen… Male   -         -     -             191 Marvel C… -          good     
##  9 Alan… Male   blue      -     Blond         180 DC Comics -          good     
## 10 Alex… Male   -         -     -             -99 NBC - He… -          good     
## # ℹ 486 more rows
## # ℹ 1 more variable: weight <dbl>
```


```r
bad_guys
```

```
## # A tibble: 207 × 10
##    name  gender eye_color race  hair_color height publisher skin_color alignment
##    <chr> <chr>  <chr>     <chr> <chr>       <dbl> <chr>     <chr>      <chr>    
##  1 Abom… Male   green     Huma… No Hair       203 Marvel C… -          bad      
##  2 Abra… Male   blue      Cosm… Black         -99 Marvel C… -          bad      
##  3 Abso… Male   blue      Human No Hair       193 Marvel C… -          bad      
##  4 Air-… Male   blue      -     White         188 Marvel C… -          bad      
##  5 Ajax  Male   brown     Cybo… Black         193 Marvel C… -          bad      
##  6 Alex… Male   -         Human -             -99 Wildstorm -          bad      
##  7 Alien Male   -         Xeno… No Hair       244 Dark Hor… black      bad      
##  8 Amazo Male   red       Andr… -             257 DC Comics -          bad      
##  9 Ammo  Male   brown     Human Black         188 Marvel C… -          bad      
## 10 Ange… Female -         -     -             -99 Image Co… -          bad      
## # ℹ 197 more rows
## # ℹ 1 more variable: weight <dbl>
```
…
10. Let's explore who the really small superheros are. In the `superhero_info` data, which have a weight less than 50? Be sure to sort your results by weight lowest to highest. 


```r
superhero_info%>% 
  filter(weight < 50) %>% 
  arrange(desc(weight))
```

```
## # A tibble: 256 × 10
##    name  gender eye_color race  hair_color height publisher skin_color alignment
##    <chr> <chr>  <chr>     <chr> <chr>       <dbl> <chr>     <chr>      <chr>    
##  1 Jolt  Female blue      -     Black         165 Marvel C… -          good     
##  2 Snow… Female white     -     Blond         178 Marvel C… -          good     
##  3 Hope… Female green     -     Red           168 Marvel C… -          good     
##  4 Swarm Male   yellow    Muta… No Hair       196 Marvel C… yellow     bad      
##  5 Fran… Male   blue      Muta… Blond         142 Marvel C… -          good     
##  6 Viol… Female violet    Human Black         137 Dark Hor… -          good     
##  7 Wiz … -      brown     -     Black         140 Marvel C… -          good     
##  8 Robi… Male   blue      Human Black         137 DC Comics -          good     
##  9 Long… Male   blue      Human Blond         188 Marvel C… -          good     
## 10 Dash  Male   blue      Human Blond         122 Dark Hor… -          good     
## # ℹ 246 more rows
## # ℹ 1 more variable: weight <dbl>
```

11. Let's make a new variable that is the ratio of height to weight. Call this variable `height_weight_ratio`.    


```r
superhero_info %>% 
  mutate(height_weight_ratio = height/weight) %>% 
  arrange(desc(height_weight_ratio))
```

```
## # A tibble: 734 × 11
##    name  gender eye_color race  hair_color height publisher skin_color alignment
##    <chr> <chr>  <chr>     <chr> <chr>       <dbl> <chr>     <chr>      <chr>    
##  1 Groot Male   yellow    Flor… -             701 Marvel C… -          good     
##  2 Gala… Male   black     Cosm… Black         876 Marvel C… -          neutral  
##  3 Fin … Male   red       Kaka… No Hair       975 Marvel C… green      good     
##  4 Long… Male   blue      Human Blond         188 Marvel C… -          good     
##  5 Jack… Male   blue      Human Brown          71 Dark Hor… -          good     
##  6 Rock… Male   brown     Anim… Brown         122 Marvel C… -          good     
##  7 Dash  Male   blue      Human Blond         122 Dark Hor… -          good     
##  8 Howa… Male   brown     -     Yellow         79 Marvel C… -          good     
##  9 Swarm Male   yellow    Muta… No Hair       196 Marvel C… yellow     bad      
## 10 Yoda  Male   brown     Yoda… White          66 George L… green      good     
## # ℹ 724 more rows
## # ℹ 2 more variables: weight <dbl>, height_weight_ratio <dbl>
```
…
```r
superhero_powers
```

```
## # A tibble: 667 × 168
##    hero_names    agility accelerated_healing lantern_power_ring
##    <chr>         <lgl>   <lgl>               <lgl>             
##  1 3-D Man       TRUE    FALSE               FALSE             
##  2 A-Bomb        FALSE   TRUE                FALSE             
##  3 Abe Sapien    TRUE    TRUE                FALSE             
##  4 Abin Sur      FALSE   FALSE               TRUE              
##  5 Abomination   FALSE   TRUE                FALSE             
##  6 Abraxas       FALSE   FALSE               FALSE             
##  7 Absorbing Man FALSE   FALSE               FALSE             
##  8 Adam Monroe   FALSE   TRUE                FALSE             
##  9 Adam Strange  FALSE   FALSE               FALSE             
## 10 Agent Bob     FALSE   FALSE               FALSE             
## # ℹ 657 more rows
## # ℹ 164 more variables: dimensional_awareness <lgl>, cold_resistance <lgl>,
## #   durability <lgl>, stealth <lgl>, energy_absorption <lgl>, flight <lgl>,
## #   danger_sense <lgl>, underwater_breathing <lgl>, marksmanship <lgl>,
## #   weapons_master <lgl>, power_augmentation <lgl>, animal_attributes <lgl>,
## #   longevity <lgl>, intelligence <lgl>, super_strength <lgl>,
## #   cryokinesis <lgl>, telepathy <lgl>, energy_armor <lgl>, …
```


13. How many superheros have a combination of agility, stealth, super_strength, stamina?

```r
superhero_powers %>%
  select(hero_names, agility, stealth, super_strength, stamina) %>%
  filter(agility & stealth & super_strength & stamina)
```

```
## # A tibble: 40 × 5
##    hero_names  agility stealth super_strength stamina
##    <chr>       <lgl>   <lgl>   <lgl>          <lgl>  
##  1 Alex Mercer TRUE    TRUE    TRUE           TRUE   
##  2 Angel       TRUE    TRUE    TRUE           TRUE   
##  3 Ant-Man II  TRUE    TRUE    TRUE           TRUE   
##  4 Aquaman     TRUE    TRUE    TRUE           TRUE   
##  5 Batman      TRUE    TRUE    TRUE           TRUE   
##  6 Black Flash TRUE    TRUE    TRUE           TRUE   
##  7 Black Manta TRUE    TRUE    TRUE           TRUE   
##  8 Brundlefly  TRUE    TRUE    TRUE           TRUE   
##  9 Buffy       TRUE    TRUE    TRUE           TRUE   
## 10 Cable       TRUE    TRUE    TRUE           TRUE   
## # ℹ 30 more rows
```
…
